\relax 
\@writefile{toc}{\contentsline {section}{\numberline {1}Moli}{1}}
\@writefile{toc}{\contentsline {section}{\numberline {2}Teoria atomica e tavola periodica}{1}}
\@writefile{toc}{\contentsline {section}{\numberline {3}Teoria del legame}{2}}
\@writefile{toc}{\contentsline {section}{\numberline {4}Termochimica e Cinetica}{3}}
\@writefile{toc}{\contentsline {section}{\numberline {5}Stati di aggregazione}{6}}
\@writefile{toc}{\contentsline {section}{\numberline {6}Equilibri, soluzioni, acidi e basi}{6}}
\@writefile{toc}{\contentsline {section}{\numberline {7}Acidi, basi e pile}{7}}
\@writefile{toc}{\contentsline {section}{\numberline {8}Sistematica degli elementi}{10}}
